%YAML 1.1
%TAG !u! tag:unity3d.com,2011:
--- !u!114 &11400000
MonoBehaviour:
  m_ObjectHideFlags: 0
  m_CorrespondingSourceObject: {fileID: 0}
  m_PrefabInstance: {fileID: 0}
  m_PrefabAsset: {fileID: 0}
  m_GameObject: {fileID: 0}
  m_Enabled: 1
  m_EditorHideFlags: 0
  m_Script: {fileID: 11500000, guid: b5518a9f45444e84f804e813879fa37d, type: 3}
  m_Name: SimpleZombieWeapon
  m_EditorClassIdentifier: 
  MaxHp: 200
  Weapons:
  - {fileID: 11400000, guid: 85e94cb66178739448a8c4126278a24c, type: 2}
  EquippedArmor: {fileID: 0}
  Id: SimpleZombieWeapon
  BasicSpeed: 132
  BasicFollowBuff: 100
  MoveLogicType: 1
  Target: {fileID: 0}
  PreferedPrefab: {fileID: 1275611587, guid: 1ad80d4c985f9714b9bdc0f476457fe0, type: 3}
