%YAML 1.1
%TAG !u! tag:unity3d.com,2011:
--- !u!114 &11400000
MonoBehaviour:
  m_ObjectHideFlags: 0
  m_CorrespondingSourceObject: {fileID: 0}
  m_PrefabInstance: {fileID: 0}
  m_PrefabAsset: {fileID: 0}
  m_GameObject: {fileID: 0}
  m_Enabled: 1
  m_EditorHideFlags: 0
  m_Script: {fileID: 11500000, guid: debcd24c07f91734080ecbbd0797d76e, type: 3}
  m_Name: Barrel
  m_EditorClassIdentifier: 
  MaxHp: 40
  Id: Barrel
  PropPrototype: {fileID: 5291143052113355424, guid: 2ead4938c29e5af48b6698a00ff4a340,
    type: 3}
  Range: 3
  Damage: 200
  DamageType: 0
