%YAML 1.1
%TAG !u! tag:unity3d.com,2011:
--- !u!1001 &1015011975828873172
PrefabInstance:
  m_ObjectHideFlags: 0
  serializedVersion: 2
  m_Modification:
    m_TransformParent: {fileID: 0}
    m_Modifications:
    - target: {fileID: 4683445932469986174, guid: 1ad80d4c985f9714b9bdc0f476457fe0,
        type: 3}
      propertyPath: m_Name
      value: Enemy_Scientist02_Red
      objectReference: {fileID: 0}
    - target: {fileID: 4683445932469986172, guid: 1ad80d4c985f9714b9bdc0f476457fe0,
        type: 3}
      propertyPath: m_LocalPosition.x
      value: 3.5
      objectReference: {fileID: 0}
    - target: {fileID: 4683445932469986172, guid: 1ad80d4c985f9714b9bdc0f476457fe0,
        type: 3}
      propertyPath: m_LocalPosition.y
      value: -2.4
      objectReference: {fileID: 0}
    - target: {fileID: 4683445932469986172, guid: 1ad80d4c985f9714b9bdc0f476457fe0,
        type: 3}
      propertyPath: m_LocalPosition.z
      value: 0
      objectReference: {fileID: 0}
    - target: {fileID: 4683445932469986172, guid: 1ad80d4c985f9714b9bdc0f476457fe0,
        type: 3}
      propertyPath: m_LocalRotation.x
      value: -0
      objectReference: {fileID: 0}
    - target: {fileID: 4683445932469986172, guid: 1ad80d4c985f9714b9bdc0f476457fe0,
        type: 3}
      propertyPath: m_LocalRotation.y
      value: -0
      objectReference: {fileID: 0}
    - target: {fileID: 4683445932469986172, guid: 1ad80d4c985f9714b9bdc0f476457fe0,
        type: 3}
      propertyPath: m_LocalRotation.z
      value: -0
      objectReference: {fileID: 0}
    - target: {fileID: 4683445932469986172, guid: 1ad80d4c985f9714b9bdc0f476457fe0,
        type: 3}
      propertyPath: m_LocalRotation.w
      value: 1
      objectReference: {fileID: 0}
    - target: {fileID: 4683445932469986172, guid: 1ad80d4c985f9714b9bdc0f476457fe0,
        type: 3}
      propertyPath: m_RootOrder
      value: 0
      objectReference: {fileID: 0}
    - target: {fileID: 4683445932469986172, guid: 1ad80d4c985f9714b9bdc0f476457fe0,
        type: 3}
      propertyPath: m_LocalEulerAnglesHint.x
      value: 0
      objectReference: {fileID: 0}
    - target: {fileID: 4683445932469986172, guid: 1ad80d4c985f9714b9bdc0f476457fe0,
        type: 3}
      propertyPath: m_LocalEulerAnglesHint.y
      value: 0
      objectReference: {fileID: 0}
    - target: {fileID: 4683445932469986172, guid: 1ad80d4c985f9714b9bdc0f476457fe0,
        type: 3}
      propertyPath: m_LocalEulerAnglesHint.z
      value: 0
      objectReference: {fileID: 0}
    - target: {fileID: -423147004418894446, guid: 1ad80d4c985f9714b9bdc0f476457fe0,
        type: 3}
      propertyPath: Id
      value: EnemyScientistRed
      objectReference: {fileID: 0}
    - target: {fileID: 4683445930746386346, guid: 1ad80d4c985f9714b9bdc0f476457fe0,
        type: 3}
      propertyPath: m_Sprite
      value: 
      objectReference: {fileID: 21300000, guid: d08b5bab8b8be2a4fa0e6b7e72f092b2,
        type: 3}
    - target: {fileID: 4683445931170413355, guid: 1ad80d4c985f9714b9bdc0f476457fe0,
        type: 3}
      propertyPath: m_Sprite
      value: 
      objectReference: {fileID: 21300000, guid: 3fe546fe365c0324bad99c4e84f5978b,
        type: 3}
    - target: {fileID: 4683445932241195826, guid: 1ad80d4c985f9714b9bdc0f476457fe0,
        type: 3}
      propertyPath: m_Sprite
      value: 
      objectReference: {fileID: 21300000, guid: aaa48375fbd895043a229cd3a50f0aff,
        type: 3}
    - target: {fileID: 6394400675745758791, guid: 1ad80d4c985f9714b9bdc0f476457fe0,
        type: 3}
      propertyPath: m_SortingOrder
      value: 10
      objectReference: {fileID: 0}
    - target: {fileID: 4683445931143547858, guid: 1ad80d4c985f9714b9bdc0f476457fe0,
        type: 3}
      propertyPath: m_Sprite
      value: 
      objectReference: {fileID: 21300000, guid: b908d2d066d0c674f97bbd25f69fa2b9,
        type: 3}
    - target: {fileID: 4683445931529997446, guid: 1ad80d4c985f9714b9bdc0f476457fe0,
        type: 3}
      propertyPath: m_Sprite
      value: 
      objectReference: {fileID: 21300000, guid: 42fdd499f0e73af4a81e0583b823934b,
        type: 3}
    - target: {fileID: 4683445931567372219, guid: 1ad80d4c985f9714b9bdc0f476457fe0,
        type: 3}
      propertyPath: m_Sprite
      value: 
      objectReference: {fileID: 21300000, guid: df48718edab98e74a94b56d6b0de4893,
        type: 3}
    - target: {fileID: 4683445931855834056, guid: 1ad80d4c985f9714b9bdc0f476457fe0,
        type: 3}
      propertyPath: m_Sprite
      value: 
      objectReference: {fileID: 21300000, guid: d7c90c51ef7ab0444bf7749168703397,
        type: 3}
    - target: {fileID: 4683445931875107404, guid: 1ad80d4c985f9714b9bdc0f476457fe0,
        type: 3}
      propertyPath: m_Sprite
      value: 
      objectReference: {fileID: 21300000, guid: 66f5e26f4ea44e54fbf4858e789f9ed8,
        type: 3}
    - target: {fileID: 4683445930807692135, guid: 1ad80d4c985f9714b9bdc0f476457fe0,
        type: 3}
      propertyPath: m_Sprite
      value: 
      objectReference: {fileID: 21300000, guid: 1ae9139980b705f458cf637eea4305a5,
        type: 3}
    - target: {fileID: 4683445931429912003, guid: 1ad80d4c985f9714b9bdc0f476457fe0,
        type: 3}
      propertyPath: m_Sprite
      value: 
      objectReference: {fileID: 21300000, guid: 80e3cf0fe822c684d97083179af5034e,
        type: 3}
    m_RemovedComponents: []
  m_SourcePrefab: {fileID: 100100000, guid: 1ad80d4c985f9714b9bdc0f476457fe0, type: 3}
