%YAML 1.1
%TAG !u! tag:unity3d.com,2011:
--- !u!114 &11400000
MonoBehaviour:
  m_ObjectHideFlags: 0
  m_CorrespondingSourceObject: {fileID: 0}
  m_PrefabInstance: {fileID: 0}
  m_PrefabAsset: {fileID: 0}
  m_GameObject: {fileID: 0}
  m_Enabled: 1
  m_EditorHideFlags: 0
  m_Script: {fileID: 11500000, guid: dfaa90a973037424ab124bb5df55fd1a, type: 3}
  m_Name: GunKedr
  m_EditorClassIdentifier: 
  Id: gunKedr
  WeaponView: {fileID: 3546832313634316619, guid: 9cc95ff3cd27e09428eedda80faf4e4d,
    type: 3}
  WeaponAmmunition: {fileID: 11400000, guid: a4b747d682a5d2d4ab8b38ac1094433a, type: 2}
  Accuracy: 4
  ShotEmitCount: 1
  FireCooldown: 0.1
