%YAML 1.1
%TAG !u! tag:unity3d.com,2011:
--- !u!114 &11400000
MonoBehaviour:
  m_ObjectHideFlags: 0
  m_CorrespondingSourceObject: {fileID: 0}
  m_PrefabInstance: {fileID: 0}
  m_PrefabAsset: {fileID: 0}
  m_GameObject: {fileID: 0}
  m_Enabled: 1
  m_EditorHideFlags: 0
  m_Script: {fileID: 11500000, guid: 9d1514134bc4fbd41bb739b1b9a49231, type: 3}
  m_Name: Roof
  m_EditorClassIdentifier: 
  m_DefaultSprite: {fileID: -7639224987532770348, guid: 89c48dc029e763444aa5ad570469086b,
    type: 3}
  m_DefaultGameObject: {fileID: 0}
  m_DefaultColliderType: 2
  m_TilingRules:
  - m_Neighbors: 0000000001000000000000000100000001000000000000000100000002000000
    m_Sprites:
    - {fileID: -8486077900199656193, guid: 89c48dc029e763444aa5ad570469086b, type: 3}
    m_GameObject: {fileID: 0}
    m_AnimationSpeed: 1
    m_PerlinScale: 0.5
    m_RuleTransform: 0
    m_Output: 0
    m_ColliderType: 2
    m_RandomTransform: 0
  - m_Neighbors: 0000000001000000000000000100000001000000020000000100000000000000
    m_Sprites:
    - {fileID: -5471267465676664202, guid: 89c48dc029e763444aa5ad570469086b, type: 3}
    m_GameObject: {fileID: 0}
    m_AnimationSpeed: 1
    m_PerlinScale: 0.5
    m_RuleTransform: 0
    m_Output: 0
    m_ColliderType: 2
    m_RandomTransform: 0
  - m_Neighbors: 0000000001000000020000000100000001000000000000000100000000000000
    m_Sprites:
    - {fileID: 7900476944805469650, guid: 89c48dc029e763444aa5ad570469086b, type: 3}
    m_GameObject: {fileID: 0}
    m_AnimationSpeed: 1
    m_PerlinScale: 0.5
    m_RuleTransform: 0
    m_Output: 0
    m_ColliderType: 2
    m_RandomTransform: 0
  - m_Neighbors: 0200000001000000000000000100000001000000000000000100000000000000
    m_Sprites:
    - {fileID: -7386563309678451005, guid: 89c48dc029e763444aa5ad570469086b, type: 3}
    m_GameObject: {fileID: 0}
    m_AnimationSpeed: 1
    m_PerlinScale: 0.5
    m_RuleTransform: 0
    m_Output: 0
    m_ColliderType: 2
    m_RandomTransform: 0
  - m_Neighbors: 0000000001000000000000000100000001000000000000000100000000000000
    m_Sprites:
    - {fileID: 6525858881957128930, guid: 89c48dc029e763444aa5ad570469086b, type: 3}
    m_GameObject: {fileID: 0}
    m_AnimationSpeed: 1
    m_PerlinScale: 0.5
    m_RuleTransform: 0
    m_Output: 0
    m_ColliderType: 2
    m_RandomTransform: 0
  - m_Neighbors: 0000000002000000000000000200000002000000000000000200000000000000
    m_Sprites:
    - {fileID: -7639224987532770348, guid: 89c48dc029e763444aa5ad570469086b, type: 3}
    m_GameObject: {fileID: 0}
    m_AnimationSpeed: 1
    m_PerlinScale: 0.5
    m_RuleTransform: 0
    m_Output: 0
    m_ColliderType: 2
    m_RandomTransform: 0
  - m_Neighbors: 0000000002000000000000000200000001000000000000000100000000000000
    m_Sprites:
    - {fileID: 5698042298999944549, guid: 89c48dc029e763444aa5ad570469086b, type: 3}
    m_GameObject: {fileID: 0}
    m_AnimationSpeed: 1
    m_PerlinScale: 0.5
    m_RuleTransform: 0
    m_Output: 0
    m_ColliderType: 2
    m_RandomTransform: 0
  - m_Neighbors: 0000000002000000000000000100000002000000000000000100000000000000
    m_Sprites:
    - {fileID: 2042237257838500972, guid: 89c48dc029e763444aa5ad570469086b, type: 3}
    m_GameObject: {fileID: 0}
    m_AnimationSpeed: 1
    m_PerlinScale: 0.5
    m_RuleTransform: 0
    m_Output: 0
    m_ColliderType: 2
    m_RandomTransform: 0
  - m_Neighbors: 0000000001000000000000000200000001000000000000000200000000000000
    m_Sprites:
    - {fileID: -3082469547474790062, guid: 89c48dc029e763444aa5ad570469086b, type: 3}
    m_GameObject: {fileID: 0}
    m_AnimationSpeed: 1
    m_PerlinScale: 0.5
    m_RuleTransform: 0
    m_Output: 0
    m_ColliderType: 2
    m_RandomTransform: 0
  - m_Neighbors: 0000000001000000000000000100000002000000000000000200000000000000
    m_Sprites:
    - {fileID: 5864730858034496525, guid: 89c48dc029e763444aa5ad570469086b, type: 3}
    m_GameObject: {fileID: 0}
    m_AnimationSpeed: 1
    m_PerlinScale: 0.5
    m_RuleTransform: 0
    m_Output: 0
    m_ColliderType: 2
    m_RandomTransform: 0
  - m_Neighbors: 0000000001000000000000000100000002000000000000000100000000000000
    m_Sprites:
    - {fileID: 5568474150191622123, guid: 89c48dc029e763444aa5ad570469086b, type: 3}
    m_GameObject: {fileID: 0}
    m_AnimationSpeed: 1
    m_PerlinScale: 0.5
    m_RuleTransform: 0
    m_Output: 0
    m_ColliderType: 2
    m_RandomTransform: 0
  - m_Neighbors: 0000000001000000000000000200000001000000000000000100000000000000
    m_Sprites:
    - {fileID: 1241356985930707613, guid: 89c48dc029e763444aa5ad570469086b, type: 3}
    m_GameObject: {fileID: 0}
    m_AnimationSpeed: 1
    m_PerlinScale: 0.5
    m_RuleTransform: 0
    m_Output: 0
    m_ColliderType: 2
    m_RandomTransform: 0
  - m_Neighbors: 0000000001000000000000000100000001000000000000000200000000000000
    m_Sprites:
    - {fileID: -1318613971922643095, guid: 89c48dc029e763444aa5ad570469086b, type: 3}
    m_GameObject: {fileID: 0}
    m_AnimationSpeed: 1
    m_PerlinScale: 0.5
    m_RuleTransform: 0
    m_Output: 0
    m_ColliderType: 2
    m_RandomTransform: 0
  - m_Neighbors: 0000000002000000000000000100000001000000000000000100000000000000
    m_Sprites:
    - {fileID: -8203613260209204335, guid: 89c48dc029e763444aa5ad570469086b, type: 3}
    m_GameObject: {fileID: 0}
    m_AnimationSpeed: 1
    m_PerlinScale: 0.5
    m_RuleTransform: 0
    m_Output: 0
    m_ColliderType: 2
    m_RandomTransform: 0
  - m_Neighbors: 0000000002000000000000000200000002000000000000000100000000000000
    m_Sprites:
    - {fileID: -2425460075583502928, guid: 89c48dc029e763444aa5ad570469086b, type: 3}
    m_GameObject: {fileID: 0}
    m_AnimationSpeed: 1
    m_PerlinScale: 0.5
    m_RuleTransform: 0
    m_Output: 0
    m_ColliderType: 2
    m_RandomTransform: 0
  - m_Neighbors: 0000000001000000000000000200000002000000000000000100000000000000
    m_Sprites:
    - {fileID: -4308825904065593949, guid: 89c48dc029e763444aa5ad570469086b, type: 3}
    m_GameObject: {fileID: 0}
    m_AnimationSpeed: 1
    m_PerlinScale: 0.5
    m_RuleTransform: 0
    m_Output: 0
    m_ColliderType: 2
    m_RandomTransform: 0
  - m_Neighbors: 0000000001000000000000000200000002000000000000000200000000000000
    m_Sprites:
    - {fileID: 7046082193212693509, guid: 89c48dc029e763444aa5ad570469086b, type: 3}
    m_GameObject: {fileID: 0}
    m_AnimationSpeed: 1
    m_PerlinScale: 0.5
    m_RuleTransform: 0
    m_Output: 0
    m_ColliderType: 2
    m_RandomTransform: 0
  - m_Neighbors: 0000000002000000000000000200000001000000000000000200000000000000
    m_Sprites:
    - {fileID: -6948501602186689432, guid: 89c48dc029e763444aa5ad570469086b, type: 3}
    m_GameObject: {fileID: 0}
    m_AnimationSpeed: 1
    m_PerlinScale: 0.5
    m_RuleTransform: 0
    m_Output: 0
    m_ColliderType: 2
    m_RandomTransform: 0
  - m_Neighbors: 0000000002000000000000000100000001000000000000000200000000000000
    m_Sprites:
    - {fileID: -2335519070181898993, guid: 89c48dc029e763444aa5ad570469086b, type: 3}
    m_GameObject: {fileID: 0}
    m_AnimationSpeed: 1
    m_PerlinScale: 0.5
    m_RuleTransform: 0
    m_Output: 0
    m_ColliderType: 2
    m_RandomTransform: 0
  - m_Neighbors: 0000000002000000000000000100000002000000000000000200000000000000
    m_Sprites:
    - {fileID: 5987426910539238374, guid: 89c48dc029e763444aa5ad570469086b, type: 3}
    m_GameObject: {fileID: 0}
    m_AnimationSpeed: 1
    m_PerlinScale: 0.5
    m_RuleTransform: 0
    m_Output: 0
    m_ColliderType: 2
    m_RandomTransform: 0
